…
  result_df = 
    sim_df %>% 
    mutate(
      result = map(data, tidy_ttest)
    ) %>% 
    unnest(result)

  result_df
}


sim_fuc(0)
```

    ## # A tibble: 5,000 × 5
    ##       mu  iter data              estimate p.value
    ##    <dbl> <int> <list>               <dbl>   <dbl>
    ##  1     0     1 <tibble [30 × 1]>   0.994   0.155 
    ##  2     0     2 <tibble [30 × 1]>  -1.28    0.154 
    ##  3     0     3 <tibble [30 × 1]>  -0.957   0.295 
    ##  4     0     4 <tibble [30 × 1]>   0.263   0.705 
    ##  5     0     5 <tibble [30 × 1]>   0.0212  0.984 
    ##  6     0     6 <tibble [30 × 1]>  -0.920   0.363 
    ##  7     0     7 <tibble [30 × 1]>  -2.15    0.0248
    ##  8     0     8 <tibble [30 × 1]>  -0.187   0.871 
    ##  9     0     9 <tibble [30 × 1]>   0.414   0.618 
    ## 10     0    10 <tibble [30 × 1]>  -0.867   0.410 
    ## # … with 4,990 more rows
…
